\relax 
\providecommand\hyper@newdestlabel[2]{}
\providecommand\HyperFirstAtBeginDocument{\AtBeginDocument}
\HyperFirstAtBeginDocument{\ifx\hyper@anchor\@undefined
\global\let\oldcontentsline\contentsline
\gdef\contentsline#1#2#3#4{\oldcontentsline{#1}{#2}{#3}}
\global\let\oldnewlabel\newlabel
\gdef\newlabel#1#2{\newlabelxx{#1}#2}
\gdef\newlabelxx#1#2#3#4#5#6{\oldnewlabel{#1}{{#2}{#3}}}
\AtEndDocument{\ifx\hyper@anchor\@undefined
\let\contentsline\oldcontentsline
\let\newlabel\oldnewlabel
\fi}
\fi}
\global\let\hyper@last\relax 
\gdef\HyperFirstAtBeginDocument#1{#1}
\providecommand\HyField@AuxAddToFields[1]{}
\providecommand\HyField@AuxAddToCoFields[2]{}
\@writefile{toc}{\contentsline {subsection}{\numberline {0.1}\texttt  {Cprofile} e \texttt  {Profile}}{1}{subsection.0.1}\protected@file@percent }
\newlabel{sub:cprofile_e_profile}{{0.1}{1}{\texttt {Cprofile} e \texttt {Profile}}{subsection.0.1}{}}
\@writefile{toc}{\contentsline {subsubsection}{\numberline {0.1.1}Installazione e avvio}{1}{subsubsection.0.1.1}\protected@file@percent }
\newlabel{subs:installazione_e_avvio}{{0.1.1}{1}{Installazione e avvio}{subsubsection.0.1.1}{}}
\@writefile{lof}{\contentsline {figure}{\numberline {1}{\ignorespaces esempio di output di \texttt  {Cprofile}}}{2}{figure.1}\protected@file@percent }
\@writefile{toc}{\contentsline {subsubsection}{\numberline {0.1.2}Punti di forza e debolezza}{2}{subsubsection.0.1.2}\protected@file@percent }
\newlabel{subs:punti_di_forza_e_debolezza}{{0.1.2}{2}{Punti di forza e debolezza}{subsubsection.0.1.2}{}}
\@writefile{lot}{\contentsline {table}{\numberline {1}{\ignorespaces Punti di forza e di debolezza \texttt  {Profile} e \texttt  {Cprofile}}}{3}{table.1}\protected@file@percent }
\@writefile{toc}{\contentsline {subsection}{\numberline {0.2}Pyinstrument}{3}{subsection.0.2}\protected@file@percent }
\newlabel{sub:pyinstrument}{{0.2}{3}{Pyinstrument}{subsection.0.2}{}}
\@writefile{toc}{\contentsline {subsubsection}{\numberline {0.2.1}Installazione e avvio}{3}{subsubsection.0.2.1}\protected@file@percent }
\newlabel{subs:installazione_e_avvio }{{0.2.1}{3}{Installazione e avvio}{subsubsection.0.2.1}{}}
\@writefile{toc}{\contentsline {subsubsection}{\numberline {0.2.2}Punti di forza e debolezza}{4}{subsubsection.0.2.2}\protected@file@percent }
\newlabel{subs:punti_di_forza_e_debolezza}{{0.2.2}{4}{Punti di forza e debolezza}{subsubsection.0.2.2}{}}
\@writefile{lot}{\contentsline {table}{\numberline {2}{\ignorespaces Punti di forza e di debolezza di PyInstrument}}{4}{table.2}\protected@file@percent }
\@writefile{toc}{\contentsline {subsection}{\numberline {0.3}Pyspy}{4}{subsection.0.3}\protected@file@percent }
\newlabel{pyspy}{{0.3}{4}{Pyspy}{subsection.0.3}{}}
\@writefile{toc}{\contentsline {subsubsection}{\numberline {0.3.1}Installazione e avvio}{4}{subsubsection.0.3.1}\protected@file@percent }
\newlabel{subs:installazione_e_avvio}{{0.3.1}{4}{Installazione e avvio}{subsubsection.0.3.1}{}}
\@writefile{toc}{\contentsline {subsubsection}{\numberline {0.3.2}Punti di forza e debolezza}{5}{subsubsection.0.3.2}\protected@file@percent }
\newlabel{punti_di_forza_e_debolezza}{{0.3.2}{5}{Punti di forza e debolezza}{subsubsection.0.3.2}{}}
\@writefile{lot}{\contentsline {table}{\numberline {3}{\ignorespaces Punti di forza e di debolezza di Pyspy}}{5}{table.3}\protected@file@percent }
\newlabel{LastPage}{{}{5}{}{page.5}{}}
\xdef\lastpage@lastpage{5}
\xdef\lastpage@lastpageHy{5}
\gdef\minted@oldcachelist{,
  default-pyg-prefix.pygstyle,
  default.pygstyle,
  FB42DC13F66AEDF1DF3E0B644281E11897FEF336BE7AE0E42AC775489651E25A.pygtex,
  C9F7155AE5E39F523396D3E30317908197FEF336BE7AE0E42AC775489651E25A.pygtex,
  284DE1E3246E39C57E8098C68C6E2B9926A7049BD2508768481EE985DE71AE66.pygtex,
  05D172AC23A3ABA040FA864E6F4C197A97FEF336BE7AE0E42AC775489651E25A.pygtex,
  F7FAE3A630435FEF41FD1EB3552E631A97FEF336BE7AE0E42AC775489651E25A.pygtex,
  92F57CBC4562EB909DCED39C2D2931A497FEF336BE7AE0E42AC775489651E25A.pygtex,
  ABC10CD16E753E8EF1682935BFD2C75D97FEF336BE7AE0E42AC775489651E25A.pygtex,
  5652035E40EC3F3E9AE96934E848FEE197FEF336BE7AE0E42AC775489651E25A.pygtex}
