PWD /home/alberto/Desktop/stage/stage/docs/components
INPUT /usr/local/texlive/2020/texmf.cnf
INPUT /usr/local/texlive/2020/texmf-dist/web2c/texmf.cnf
INPUT /usr/local/texlive/2020/texmf-var/web2c/pdftex/pdflatex.fmt
INPUT references.tex
OUTPUT references.log
INPUT /usr/local/texlive/2020/texmf-dist/tex/latex/subfiles/subfiles.cls
INPUT /usr/local/texlive/2020/texmf-dist/tex/latex/subfiles/subfiles.cls
INPUT /usr/local/texlive/2020/texmf-dist/tex/latex/tools/verbatim.sty
INPUT /usr/local/texlive/2020/texmf-dist/tex/latex/tools/verbatim.sty
INPUT /usr/local/texlive/2020/texmf-dist/tex/latex/import/import.sty
INPUT /usr/local/texlive/2020/texmf-dist/tex/latex/import/import.sty
INPUT ../static_and_dynamic_analysis_tools.tex
INPUT ../static_and_dynamic_analysis_tools.tex
INPUT /usr/local/texlive/2020/texmf-dist/tex/latex/base/article.cls
INPUT /usr/local/texlive/2020/texmf-dist/tex/latex/base/article.cls
INPUT /usr/local/texlive/2020/texmf-dist/tex/latex/base/size10.clo
INPUT /usr/local/texlive/2020/texmf-dist/tex/latex/base/size10.clo
INPUT /usr/local/texlive/2020/texmf-dist/tex/latex/subfiles/subfiles.sty
INPUT /usr/local/texlive/2020/texmf-dist/tex/latex/subfiles/subfiles.sty
INPUT /usr/local/texlive/2020/texmf-dist/tex/latex/fancyhdr/fancyhdr.sty
INPUT /usr/local/texlive/2020/texmf-dist/tex/latex/fancyhdr/fancyhdr.sty
INPUT /usr/local/texlive/2020/texmf-dist/tex/latex/graphics/graphicx.sty
INPUT /usr/local/texlive/2020/texmf-dist/tex/latex/graphics/graphicx.sty
INPUT /usr/local/texlive/2020/texmf-dist/tex/latex/graphics/keyval.sty
INPUT /usr/local/texlive/2020/texmf-dist/tex/latex/graphics/keyval.sty
INPUT /usr/local/texlive/2020/texmf-dist/tex/latex/graphics/graphics.sty
INPUT /usr/local/texlive/2020/texmf-dist/tex/latex/graphics/graphics.sty
INPUT /usr/local/texlive/2020/texmf-dist/tex/latex/graphics/trig.sty
INPUT /usr/local/texlive/2020/texmf-dist/tex/latex/graphics/trig.sty
INPUT /usr/local/texlive/2020/texmf-dist/tex/latex/graphics-cfg/graphics.cfg
INPUT /usr/local/texlive/2020/texmf-dist/tex/latex/graphics-cfg/graphics.cfg
INPUT /usr/local/texlive/2020/texmf-dist/tex/latex/graphics-def/pdftex.def
INPUT /usr/local/texlive/2020/texmf-dist/tex/latex/graphics-def/pdftex.def
INPUT /usr/local/texlive/2020/texmf-dist/tex/latex/subfigure/subfigure.sty
INPUT /usr/local/texlive/2020/texmf-dist/tex/latex/subfigure/subfigure.sty
INPUT /usr/local/texlive/2020/texmf-dist/tex/latex/subfigure/subfigure.cfg
INPUT /usr/local/texlive/2020/texmf-dist/tex/latex/subfigure/subfigure.cfg
INPUT /usr/local/texlive/2020/texmf-dist/tex/latex/lastpage/lastpage.sty
INPUT /usr/local/texlive/2020/texmf-dist/tex/latex/lastpage/lastpage.sty
INPUT /usr/local/texlive/2020/texmf-dist/tex/latex/anysize/anysize.sty
INPUT /usr/local/texlive/2020/texmf-dist/tex/latex/anysize/anysize.sty
INPUT /usr/local/texlive/2020/texmf-dist/tex/latex/float/float.sty
INPUT /usr/local/texlive/2020/texmf-dist/tex/latex/float/float.sty
INPUT /usr/local/texlive/2020/texmf-dist/tex/latex/minted/minted.sty
INPUT /usr/local/texlive/2020/texmf-dist/tex/latex/minted/minted.sty
INPUT /usr/local/texlive/2020/texmf-dist/tex/latex/kvoptions/kvoptions.sty
INPUT /usr/local/texlive/2020/texmf-dist/tex/latex/kvoptions/kvoptions.sty
INPUT /usr/local/texlive/2020/texmf-dist/tex/generic/ltxcmds/ltxcmds.sty
INPUT /usr/local/texlive/2020/texmf-dist/tex/generic/ltxcmds/ltxcmds.sty
INPUT /usr/local/texlive/2020/texmf-dist/tex/generic/kvsetkeys/kvsetkeys.sty
INPUT /usr/local/texlive/2020/texmf-dist/tex/generic/kvsetkeys/kvsetkeys.sty
INPUT /usr/local/texlive/2020/texmf-dist/tex/latex/fvextra/fvextra.sty
INPUT /usr/local/texlive/2020/texmf-dist/tex/latex/fvextra/fvextra.sty
INPUT /usr/local/texlive/2020/texmf-dist/tex/latex/base/ifthen.sty
INPUT /usr/local/texlive/2020/texmf-dist/tex/latex/base/ifthen.sty
INPUT /usr/local/texlive/2020/texmf-dist/tex/latex/etoolbox/etoolbox.sty
INPUT /usr/local/texlive/2020/texmf-dist/tex/latex/etoolbox/etoolbox.sty
INPUT /usr/local/texlive/2020/texmf-dist/tex/latex/fancyvrb/fancyvrb.sty
INPUT /usr/local/texlive/2020/texmf-dist/tex/latex/fancyvrb/fancyvrb.sty
INPUT /usr/local/texlive/2020/texmf-dist/tex/latex/upquote/upquote.sty
INPUT /usr/local/texlive/2020/texmf-dist/tex/latex/upquote/upquote.sty
INPUT /usr/local/texlive/2020/texmf-dist/tex/latex/lineno/lineno.sty
INPUT /usr/local/texlive/2020/texmf-dist/tex/latex/lineno/lineno.sty
INPUT /usr/local/texlive/2020/texmf-dist/tex/latex/tools/calc.sty
INPUT /usr/local/texlive/2020/texmf-dist/tex/latex/tools/calc.sty
INPUT /usr/local/texlive/2020/texmf-dist/tex/latex/tools/shellesc.sty
INPUT /usr/local/texlive/2020/texmf-dist/tex/latex/tools/shellesc.sty
INPUT /usr/local/texlive/2020/texmf-dist/tex/latex/tools/shellesc.sty
INPUT /usr/local/texlive/2020/texmf-dist/tex/latex/ifplatform/ifplatform.sty
INPUT /usr/local/texlive/2020/texmf-dist/tex/latex/ifplatform/ifplatform.sty
INPUT /usr/local/texlive/2020/texmf-dist/tex/latex/pdftexcmds/pdftexcmds.sty
INPUT /usr/local/texlive/2020/texmf-dist/tex/latex/pdftexcmds/pdftexcmds.sty
INPUT /usr/local/texlive/2020/texmf-dist/tex/generic/infwarerr/infwarerr.sty
INPUT /usr/local/texlive/2020/texmf-dist/tex/generic/infwarerr/infwarerr.sty
INPUT /usr/local/texlive/2020/texmf-dist/tex/generic/iftex/iftex.sty
INPUT /usr/local/texlive/2020/texmf-dist/tex/generic/iftex/iftex.sty
INPUT /usr/local/texlive/2020/texmf-dist/tex/generic/catchfile/catchfile.sty
INPUT /usr/local/texlive/2020/texmf-dist/tex/generic/catchfile/catchfile.sty
INPUT /usr/local/texlive/2020/texmf-dist/tex/generic/etexcmds/etexcmds.sty
INPUT /usr/local/texlive/2020/texmf-dist/tex/generic/etexcmds/etexcmds.sty
INPUT /usr/local/texlive/2020/texmf-dist/tex/generic/iftex/ifluatex.sty
INPUT /usr/local/texlive/2020/texmf-dist/tex/generic/iftex/ifluatex.sty
INPUT /dev/null
INPUT references.w18
INPUT references.w18
INPUT /usr/local/texlive/2020/texmf-dist/tex/generic/xstring/xstring.sty
INPUT /usr/local/texlive/2020/texmf-dist/tex/generic/xstring/xstring.sty
INPUT /usr/local/texlive/2020/texmf-dist/tex/generic/xstring/xstring.tex
INPUT /usr/local/texlive/2020/texmf-dist/tex/latex/framed/framed.sty
INPUT /usr/local/texlive/2020/texmf-dist/tex/latex/framed/framed.sty
INPUT /usr/local/texlive/2020/texmf-dist/tex/latex/hyperref/hyperref.sty
INPUT /usr/local/texlive/2020/texmf-dist/tex/latex/hyperref/hyperref.sty
INPUT /usr/local/texlive/2020/texmf-dist/tex/generic/kvdefinekeys/kvdefinekeys.sty
INPUT /usr/local/texlive/2020/texmf-dist/tex/generic/kvdefinekeys/kvdefinekeys.sty
INPUT /usr/local/texlive/2020/texmf-dist/tex/generic/pdfescape/pdfescape.sty
INPUT /usr/local/texlive/2020/texmf-dist/tex/generic/pdfescape/pdfescape.sty
INPUT /usr/local/texlive/2020/texmf-dist/tex/latex/hycolor/hycolor.sty
INPUT /usr/local/texlive/2020/texmf-dist/tex/latex/hycolor/hycolor.sty
INPUT /usr/local/texlive/2020/texmf-dist/tex/latex/letltxmacro/letltxmacro.sty
INPUT /usr/local/texlive/2020/texmf-dist/tex/latex/letltxmacro/letltxmacro.sty
INPUT /usr/local/texlive/2020/texmf-dist/tex/latex/auxhook/auxhook.sty
INPUT /usr/local/texlive/2020/texmf-dist/tex/latex/auxhook/auxhook.sty
INPUT /usr/local/texlive/2020/texmf-dist/tex/latex/hyperref/pd1enc.def
INPUT /usr/local/texlive/2020/texmf-dist/tex/latex/hyperref/pd1enc.def
INPUT /usr/local/texlive/2020/texmf-dist/tex/generic/intcalc/intcalc.sty
INPUT /usr/local/texlive/2020/texmf-dist/tex/generic/intcalc/intcalc.sty
INPUT /usr/local/texlive/2020/texmf-dist/tex/latex/url/url.sty
INPUT /usr/local/texlive/2020/texmf-dist/tex/latex/url/url.sty
INPUT /usr/local/texlive/2020/texmf-dist/tex/generic/bitset/bitset.sty
INPUT /usr/local/texlive/2020/texmf-dist/tex/generic/bitset/bitset.sty
INPUT /usr/local/texlive/2020/texmf-dist/tex/generic/bigintcalc/bigintcalc.sty
INPUT /usr/local/texlive/2020/texmf-dist/tex/generic/bigintcalc/bigintcalc.sty
INPUT /usr/local/texlive/2020/texmf-dist/tex/generic/atbegshi/atbegshi.sty
INPUT /usr/local/texlive/2020/texmf-dist/tex/generic/atbegshi/atbegshi.sty
INPUT /usr/local/texlive/2020/texmf-dist/tex/latex/hyperref/hpdftex.def
INPUT /usr/local/texlive/2020/texmf-dist/tex/latex/hyperref/hpdftex.def
INPUT /usr/local/texlive/2020/texmf-dist/tex/latex/atveryend/atveryend.sty
INPUT /usr/local/texlive/2020/texmf-dist/tex/latex/atveryend/atveryend.sty
INPUT /usr/local/texlive/2020/texmf-dist/tex/latex/rerunfilecheck/rerunfilecheck.sty
INPUT /usr/local/texlive/2020/texmf-dist/tex/latex/rerunfilecheck/rerunfilecheck.sty
INPUT /usr/local/texlive/2020/texmf-dist/tex/generic/uniquecounter/uniquecounter.sty
INPUT /usr/local/texlive/2020/texmf-dist/tex/generic/uniquecounter/uniquecounter.sty
INPUT /usr/local/texlive/2020/texmf-dist/tex/latex/graphics/color.sty
INPUT /usr/local/texlive/2020/texmf-dist/tex/latex/graphics/color.sty
INPUT /usr/local/texlive/2020/texmf-dist/tex/latex/graphics-cfg/color.cfg
INPUT /usr/local/texlive/2020/texmf-dist/tex/latex/graphics-cfg/color.cfg
INPUT /usr/local/texlive/2020/texmf-dist/tex/latex/colortbl/colortbl.sty
INPUT /usr/local/texlive/2020/texmf-dist/tex/latex/colortbl/colortbl.sty
INPUT /usr/local/texlive/2020/texmf-dist/tex/latex/tools/array.sty
INPUT /usr/local/texlive/2020/texmf-dist/tex/latex/tools/array.sty
INPUT references.aex
INPUT references.aex
INPUT /usr/local/texlive/2020/texmf-dist/fonts/map/fontname/texfonts.map
INPUT /usr/local/texlive/2020/texmf-dist/fonts/tfm/public/cm/cmr12.tfm
INPUT /usr/local/texlive/2020/texmf-dist/fonts/tfm/public/cm/cmbx12.tfm
