\relax 
\providecommand\hyper@newdestlabel[2]{}
\providecommand\HyperFirstAtBeginDocument{\AtBeginDocument}
\HyperFirstAtBeginDocument{\ifx\hyper@anchor\@undefined
\global\let\oldcontentsline\contentsline
\gdef\contentsline#1#2#3#4{\oldcontentsline{#1}{#2}{#3}}
\global\let\oldnewlabel\newlabel
\gdef\newlabel#1#2{\newlabelxx{#1}#2}
\gdef\newlabelxx#1#2#3#4#5#6{\oldnewlabel{#1}{{#2}{#3}}}
\AtEndDocument{\ifx\hyper@anchor\@undefined
\let\contentsline\oldcontentsline
\let\newlabel\oldnewlabel
\fi}
\fi}
\global\let\hyper@last\relax 
\gdef\HyperFirstAtBeginDocument#1{#1}
\providecommand\HyField@AuxAddToFields[1]{}
\providecommand\HyField@AuxAddToCoFields[2]{}
\@writefile{toc}{\contentsline {subsection}{\numberline {0.1}Esempio tipico}{1}{subsection.0.1}\protected@file@percent }
\newlabel{subs:esempio_tipico}{{0.1}{1}{Esempio tipico}{subsection.0.1}{}}
\@writefile{toc}{\contentsline {subsubsection}{\numberline {0.1.1}Iris}{1}{subsubsection.0.1.1}\protected@file@percent }
\newlabel{subs:iris}{{0.1.1}{1}{Iris}{subsubsection.0.1.1}{}}
\@writefile{lof}{\contentsline {figure}{\numberline {1}{\ignorespaces distribuzione delle istanze del dataset Iris su un grafico cartesiano}}{1}{figure.1}\protected@file@percent }
\@writefile{lof}{\contentsline {figure}{\numberline {2}{\ignorespaces Risultato dell'algoritmo di clustering Dbscan}}{2}{figure.2}\protected@file@percent }
\newlabel{fig:dbscan-sepal}{{2}{2}{Risultato dell'algoritmo di clustering Dbscan}{figure.2}{}}
\@writefile{lof}{\contentsline {figure}{\numberline {3}{\ignorespaces Risultato dell'algoritmo di clustering K-means}}{3}{figure.3}\protected@file@percent }
\@writefile{lof}{\contentsline {figure}{\numberline {4}{\ignorespaces distribuzione delle istanze del dataset Iris su un grafico cartesiano}}{4}{figure.4}\protected@file@percent }
\@writefile{lof}{\contentsline {figure}{\numberline {5}{\ignorespaces Risultato dell'algoritmo di clustering Dbscan}}{4}{figure.5}\protected@file@percent }
\@writefile{lof}{\contentsline {figure}{\numberline {6}{\ignorespaces Risultato dell'algoritmo di clustering K-means}}{5}{figure.6}\protected@file@percent }
\@writefile{toc}{\contentsline {subsection}{\numberline {0.2}Proprietà e performance di Dbscan e K-means}{5}{subsection.0.2}\protected@file@percent }
\newlabel{sub:proprietà_e_performance_di_Dbscan_e_K-means}{{0.2}{5}{Proprietà e performance di Dbscan e K-means}{subsection.0.2}{}}
\@writefile{toc}{\contentsline {subsubsection}{\numberline {0.2.1}Dataset 1}{5}{subsubsection.0.2.1}\protected@file@percent }
\newlabel{subs:dataset 1}{{0.2.1}{5}{Dataset 1}{subsubsection.0.2.1}{}}
\@writefile{lof}{\contentsline {figure}{\numberline {7}{\ignorespaces distribuzione dei dati nel dataset 1}}{6}{figure.7}\protected@file@percent }
\@writefile{lof}{\contentsline {figure}{\numberline {8}{\ignorespaces Cluster individuati dagli algoritmi Dbscan e K-means}}{6}{figure.8}\protected@file@percent }
\newlabel{fig:dataset1}{{8}{6}{Cluster individuati dagli algoritmi Dbscan e K-means}{figure.8}{}}
\newlabel{par:performance}{{0.2.1}{7}{Performance}{section*.1}{}}
\@writefile{lot}{\contentsline {table}{\numberline {1}{\ignorespaces Performance di Dbscan e K-means per il dataset 1}}{7}{table.1}\protected@file@percent }
\@writefile{toc}{\contentsline {paragraph}{Performance}{7}{table.1}\protected@file@percent }
\@writefile{toc}{\contentsline {subsubsection}{\numberline {0.2.2}Dataset 2}{7}{subsubsection.0.2.2}\protected@file@percent }
\newlabel{subs:dataset_2}{{0.2.2}{7}{Dataset 2}{subsubsection.0.2.2}{}}
\@writefile{lof}{\contentsline {figure}{\numberline {9}{\ignorespaces distribuzione dei dati nel dataset 2}}{7}{figure.9}\protected@file@percent }
\newlabel{fig:double-circle}{{9}{7}{distribuzione dei dati nel dataset 2}{figure.9}{}}
\newlabel{fig:clustering-dataset21}{{0.2.2}{8}{Dataset 2}{subfigure.10.1}{}}
\newlabel{fig:clustering-dataset22}{{0.2.2}{8}{Dataset 2}{subfigure.10.2}{}}
\newlabel{fig:dataset2}{{0.2.2}{8}{Dataset 2}{subfigure.10.2}{}}
\@writefile{lof}{\contentsline {figure}{\numberline {10}{\ignorespaces cluster individuati dagli algoritmi DBscan e K-means}}{8}{figure.10}\protected@file@percent }
\@writefile{lof}{\contentsline {figure}{\numberline {11}{\ignorespaces altri dataset aventi forme non sferiche}}{9}{figure.11}\protected@file@percent }
\newlabel{fig:moons-and-long}{{11}{9}{altri dataset aventi forme non sferiche}{figure.11}{}}
\@writefile{lof}{\contentsline {figure}{\numberline {12}{\ignorespaces K-means applicato a dataset aventi forme non sferiche}}{9}{figure.12}\protected@file@percent }
\@writefile{lof}{\contentsline {figure}{\numberline {13}{\ignorespaces DBscan applicato a cluster aventi forme non sferiche}}{10}{figure.13}\protected@file@percent }
\newlabel{Performance}{{0.2.2}{10}{Performance}{section*.2}{}}
\@writefile{lot}{\contentsline {table}{\numberline {2}{\ignorespaces Performance di Dbscan e K-means per dataset non sferici}}{10}{table.2}\protected@file@percent }
\@writefile{toc}{\contentsline {paragraph}{Performance}{10}{table.2}\protected@file@percent }
\@writefile{toc}{\contentsline {subsubsection}{\numberline {0.2.3}Dataset 3}{10}{subsubsection.0.2.3}\protected@file@percent }
\newlabel{subs:dataset_3}{{0.2.3}{10}{Dataset 3}{subsubsection.0.2.3}{}}
\@writefile{lof}{\contentsline {figure}{\numberline {14}{\ignorespaces Distribuzione dei dati nel dataset 3}}{11}{figure.14}\protected@file@percent }
\newlabel{fig:clustering-dataset21}{{0.2.3}{11}{Dataset 3}{subfigure.15.1}{}}
\newlabel{fig:clustering-dataset22}{{0.2.3}{11}{Dataset 3}{subfigure.15.2}{}}
\@writefile{lof}{\contentsline {figure}{\numberline {15}{\ignorespaces cluster individuati dagli algoritmi DBscan e K-means}}{11}{figure.15}\protected@file@percent }
\@writefile{lot}{\contentsline {table}{\numberline {3}{\ignorespaces Performance di Dbscan e K-means per il dataset 3}}{12}{table.3}\protected@file@percent }
\newlabel{par:performance}{{0.2.3}{12}{Performance}{section*.3}{}}
\@writefile{toc}{\contentsline {paragraph}{Performance}{12}{section*.3}\protected@file@percent }
\newlabel{LastPage}{{}{12}{}{page.12}{}}
\xdef\lastpage@lastpage{12}
\xdef\lastpage@lastpageHy{12}
