\relax 
\providecommand\hyper@newdestlabel[2]{}
\providecommand\HyperFirstAtBeginDocument{\AtBeginDocument}
\HyperFirstAtBeginDocument{\ifx\hyper@anchor\@undefined
\global\let\oldcontentsline\contentsline
\gdef\contentsline#1#2#3#4{\oldcontentsline{#1}{#2}{#3}}
\global\let\oldnewlabel\newlabel
\gdef\newlabel#1#2{\newlabelxx{#1}#2}
\gdef\newlabelxx#1#2#3#4#5#6{\oldnewlabel{#1}{{#2}{#3}}}
\AtEndDocument{\ifx\hyper@anchor\@undefined
\let\contentsline\oldcontentsline
\let\newlabel\oldnewlabel
\fi}
\fi}
\global\let\hyper@last\relax 
\gdef\HyperFirstAtBeginDocument#1{#1}
\providecommand\HyField@AuxAddToFields[1]{}
\providecommand\HyField@AuxAddToCoFields[2]{}
\@writefile{toc}{\contentsline {section}{\numberline {1}Scopo del documento}{2}{section.1}\protected@file@percent }
\newlabel{sec:scopo_del_documento}{{1}{2}{Scopo del documento}{section.1}{}}
\@writefile{toc}{\contentsline {section}{\numberline {2}Requisiti}{2}{section.2}\protected@file@percent }
\newlabel{sec:requisiti}{{2}{2}{Requisiti}{section.2}{}}
\@writefile{toc}{\contentsline {subsection}{\numberline {2.1}Tool richiesti}{2}{subsection.2.1}\protected@file@percent }
\newlabel{sub:tool_richiesti}{{2.1}{2}{Tool richiesti}{subsection.2.1}{}}
\@writefile{toc}{\contentsline {subsection}{\numberline {2.2}Struttura del progetto}{2}{subsection.2.2}\protected@file@percent }
\newlabel{sub:struttura_del_progetto}{{2.2}{2}{Struttura del progetto}{subsection.2.2}{}}
\@writefile{toc}{\contentsline {section}{\numberline {3}Installazione}{2}{section.3}\protected@file@percent }
\newlabel{sec:installazione}{{3}{2}{Installazione}{section.3}{}}
\@writefile{toc}{\contentsline {section}{\numberline {4}Configurazione}{3}{section.4}\protected@file@percent }
\newlabel{sec:configurazione}{{4}{3}{Configurazione}{section.4}{}}
\@writefile{toc}{\contentsline {subsection}{\numberline {4.1}File di configurazione}{3}{subsection.4.1}\protected@file@percent }
\newlabel{sub:file_di_configurazione}{{4.1}{3}{File di configurazione}{subsection.4.1}{}}
\@writefile{toc}{\contentsline {subsubsection}{\numberline {4.1.1}config.properties}{3}{subsubsection.4.1.1}\protected@file@percent }
\newlabel{subs:config.properties}{{4.1.1}{3}{config.properties}{subsubsection.4.1.1}{}}
\@writefile{toc}{\contentsline {subsubsection}{\numberline {4.1.2}sonar-project.properties}{3}{subsubsection.4.1.2}\protected@file@percent }
\newlabel{subs:sonar-project.properties}{{4.1.2}{3}{sonar-project.properties}{subsubsection.4.1.2}{}}
\@writefile{toc}{\contentsline {subsection}{\numberline {4.2}Primo avvio}{4}{subsection.4.2}\protected@file@percent }
\newlabel{sub:primo_avvio}{{4.2}{4}{Primo avvio}{subsection.4.2}{}}
\@writefile{toc}{\contentsline {subsubsection}{\numberline {4.2.1}Jenkins}{4}{subsubsection.4.2.1}\protected@file@percent }
\newlabel{subs:jenkins}{{4.2.1}{4}{Jenkins}{subsubsection.4.2.1}{}}
\@writefile{lof}{\contentsline {figure}{\numberline {1}{\ignorespaces Prima schermata di jenkins}}{4}{figure.1}\protected@file@percent }
\@writefile{lof}{\contentsline {figure}{\numberline {2}{\ignorespaces Home page di jenkins}}{5}{figure.2}\protected@file@percent }
\@writefile{toc}{\contentsline {subsubsection}{\numberline {4.2.2}Sonarqube}{6}{subsubsection.4.2.2}\protected@file@percent }
\newlabel{subs:sonarqube}{{4.2.2}{6}{Sonarqube}{subsubsection.4.2.2}{}}
\newlabel{par:paragraph}{{4.2.2}{6}{Premessa}{section*.2}{}}
\@writefile{toc}{\contentsline {paragraph}{Premessa}{6}{section*.2}\protected@file@percent }
\@writefile{lof}{\contentsline {figure}{\numberline {3}{\ignorespaces Home page di Sonarqube}}{6}{figure.3}\protected@file@percent }
\@writefile{lof}{\contentsline {figure}{\numberline {4}{\ignorespaces Pagina di attivazione delle regole per Pylint}}{7}{figure.4}\protected@file@percent }
\@writefile{toc}{\contentsline {subsection}{\numberline {4.3}Integrare Jenkins con Sonarqube}{7}{subsection.4.3}\protected@file@percent }
\newlabel{Integrare_Jenkins_con_Sonarqube}{{4.3}{7}{Integrare Jenkins con Sonarqube}{subsection.4.3}{}}
\@writefile{lof}{\contentsline {figure}{\numberline {5}{\ignorespaces configurazione di sonarqube da jenkins}}{7}{figure.5}\protected@file@percent }
\@writefile{lof}{\contentsline {figure}{\numberline {6}{\ignorespaces configurazione del sonarscanner da Jenkins}}{8}{figure.6}\protected@file@percent }
\@writefile{toc}{\contentsline {subsection}{\numberline {4.4}Creare un nuovo progetto}{8}{subsection.4.4}\protected@file@percent }
\newlabel{sub:creare_un_nuovo_progetto}{{4.4}{8}{Creare un nuovo progetto}{subsection.4.4}{}}
\@writefile{toc}{\contentsline {subsubsection}{\numberline {4.4.1}Progetto semplice}{9}{subsubsection.4.4.1}\protected@file@percent }
\newlabel{sub:progetto_semplice}{{4.4.1}{9}{Progetto semplice}{subsubsection.4.4.1}{}}
\@writefile{lof}{\contentsline {figure}{\numberline {7}{\ignorespaces schermata di creazione di un nuovo progetto}}{9}{figure.7}\protected@file@percent }
\@writefile{lof}{\contentsline {figure}{\numberline {8}{\ignorespaces finestra di configurazione del jenkinsfile}}{9}{figure.8}\protected@file@percent }
\@writefile{lof}{\contentsline {figure}{\numberline {9}{\ignorespaces finestra di aggiunta del link al repository di riferimento}}{10}{figure.9}\protected@file@percent }
\@writefile{toc}{\contentsline {subsubsection}{\numberline {4.4.2}Integrare Jenkins con Gitlab}{10}{subsubsection.4.4.2}\protected@file@percent }
\newlabel{integrare_jenkins_con_Gitlab}{{4.4.2}{10}{Integrare Jenkins con Gitlab}{subsubsection.4.4.2}{}}
\@writefile{lof}{\contentsline {figure}{\numberline {10}{\ignorespaces schermata di creazione del token per abilitare l'accesso alle API di Gitlab}}{10}{figure.10}\protected@file@percent }
\@writefile{lof}{\contentsline {figure}{\numberline {11}{\ignorespaces schermata di configurazione della connessione di Jenkins a Gitlab}}{11}{figure.11}\protected@file@percent }
\@writefile{lof}{\contentsline {figure}{\numberline {12}{\ignorespaces schermata che mostra la sezione di build triggers}}{12}{figure.12}\protected@file@percent }
\@writefile{lof}{\contentsline {figure}{\numberline {13}{\ignorespaces schermata che mostra la configurazione della pipeline}}{12}{figure.13}\protected@file@percent }
\@writefile{lof}{\contentsline {figure}{\numberline {14}{\ignorespaces schermata che mostra la pagina di configurazione e il collegamento di Gitlab a Jenkins}}{13}{figure.14}\protected@file@percent }
\bibcite{Integrate gitlab with jenkins}{1}
\bibcite{Integrate Sonarqube with Jenkins}{2}
\bibcite{Jenkins}{3}
\bibcite{Sonarqube documentation for sonarscanner}{4}
\bibcite{Sonarqube documentation}{5}
\newlabel{LastPage}{{}{14}{}{page.14}{}}
\xdef\lastpage@lastpage{14}
\xdef\lastpage@lastpageHy{14}
\gdef\minted@oldcachelist{,
  default-pyg-prefix.pygstyle,
  default.pygstyle,
  B7FA595F7DEEAC6E9148B234FE94352428B0A19797A1B6E5EAC74EE33D279578.pygtex,
  02ADFA79EA07919A76A31156C279001A28B0A19797A1B6E5EAC74EE33D279578.pygtex,
  DD40D36933709E3765A7930C076D087C28B0A19797A1B6E5EAC74EE33D279578.pygtex}
