PWD /home/alberto/Desktop/stage/clustering_gitlab/docs
INPUT /etc/texmf/web2c/texmf.cnf
INPUT /usr/share/texmf/web2c/texmf.cnf
INPUT /usr/share/texlive/texmf-dist/web2c/texmf.cnf
INPUT /var/lib/texmf/web2c/pdftex/pdflatex.fmt
INPUT istruzioni.tex
OUTPUT istruzioni.log
INPUT /usr/share/texlive/texmf-dist/tex/latex/base/article.cls
INPUT /usr/share/texlive/texmf-dist/tex/latex/base/article.cls
INPUT /usr/share/texlive/texmf-dist/tex/latex/base/size10.clo
INPUT /usr/share/texlive/texmf-dist/tex/latex/base/size10.clo
INPUT /usr/share/texlive/texmf-dist/tex/latex/subfiles/subfiles.sty
INPUT /usr/share/texlive/texmf-dist/tex/latex/subfiles/subfiles.sty
INPUT /usr/share/texlive/texmf-dist/tex/latex/import/import.sty
INPUT /usr/share/texlive/texmf-dist/tex/latex/import/import.sty
INPUT /usr/share/texlive/texmf-dist/tex/latex/fancyhdr/fancyhdr.sty
INPUT /usr/share/texlive/texmf-dist/tex/latex/fancyhdr/fancyhdr.sty
INPUT /usr/share/texlive/texmf-dist/tex/latex/graphics/graphicx.sty
INPUT /usr/share/texlive/texmf-dist/tex/latex/graphics/graphicx.sty
INPUT /usr/share/texlive/texmf-dist/tex/latex/graphics/keyval.sty
INPUT /usr/share/texlive/texmf-dist/tex/latex/graphics/keyval.sty
INPUT /usr/share/texlive/texmf-dist/tex/latex/graphics/graphics.sty
INPUT /usr/share/texlive/texmf-dist/tex/latex/graphics/graphics.sty
INPUT /usr/share/texlive/texmf-dist/tex/latex/graphics/trig.sty
INPUT /usr/share/texlive/texmf-dist/tex/latex/graphics/trig.sty
INPUT /usr/share/texlive/texmf-dist/tex/latex/graphics-cfg/graphics.cfg
INPUT /usr/share/texlive/texmf-dist/tex/latex/graphics-cfg/graphics.cfg
INPUT /usr/share/texlive/texmf-dist/tex/latex/graphics-def/pdftex.def
INPUT /usr/share/texlive/texmf-dist/tex/latex/graphics-def/pdftex.def
INPUT /usr/share/texlive/texmf-dist/tex/latex/subfigure/subfigure.sty
INPUT /usr/share/texlive/texmf-dist/tex/latex/subfigure/subfigure.sty
INPUT /usr/share/texlive/texmf-dist/tex/latex/subfigure/subfigure.cfg
INPUT /usr/share/texlive/texmf-dist/tex/latex/subfigure/subfigure.cfg
INPUT /usr/share/texlive/texmf-dist/tex/latex/lastpage/lastpage.sty
INPUT /usr/share/texlive/texmf-dist/tex/latex/lastpage/lastpage.sty
INPUT /usr/share/texlive/texmf-dist/tex/latex/anysize/anysize.sty
INPUT /usr/share/texlive/texmf-dist/tex/latex/anysize/anysize.sty
INPUT /usr/share/texlive/texmf-dist/tex/latex/float/float.sty
INPUT /usr/share/texlive/texmf-dist/tex/latex/float/float.sty
INPUT /usr/share/texlive/texmf-dist/tex/latex/minted/minted.sty
INPUT /usr/share/texlive/texmf-dist/tex/latex/minted/minted.sty
INPUT /usr/share/texlive/texmf-dist/tex/latex/kvoptions/kvoptions.sty
INPUT /usr/share/texlive/texmf-dist/tex/latex/kvoptions/kvoptions.sty
INPUT /usr/share/texlive/texmf-dist/tex/generic/ltxcmds/ltxcmds.sty
INPUT /usr/share/texlive/texmf-dist/tex/generic/ltxcmds/ltxcmds.sty
INPUT /usr/share/texlive/texmf-dist/tex/generic/kvsetkeys/kvsetkeys.sty
INPUT /usr/share/texlive/texmf-dist/tex/generic/kvsetkeys/kvsetkeys.sty
INPUT /usr/share/texlive/texmf-dist/tex/latex/fvextra/fvextra.sty
INPUT /usr/share/texlive/texmf-dist/tex/latex/fvextra/fvextra.sty
INPUT /usr/share/texlive/texmf-dist/tex/latex/base/ifthen.sty
INPUT /usr/share/texlive/texmf-dist/tex/latex/base/ifthen.sty
INPUT /usr/share/texlive/texmf-dist/tex/latex/etoolbox/etoolbox.sty
INPUT /usr/share/texlive/texmf-dist/tex/latex/etoolbox/etoolbox.sty
INPUT /usr/share/texlive/texmf-dist/tex/latex/fancyvrb/fancyvrb.sty
INPUT /usr/share/texlive/texmf-dist/tex/latex/fancyvrb/fancyvrb.sty
INPUT /usr/share/texlive/texmf-dist/tex/latex/upquote/upquote.sty
INPUT /usr/share/texlive/texmf-dist/tex/latex/upquote/upquote.sty
INPUT /usr/share/texlive/texmf-dist/tex/latex/lineno/lineno.sty
INPUT /usr/share/texlive/texmf-dist/tex/latex/lineno/lineno.sty
INPUT /usr/share/texlive/texmf-dist/tex/latex/tools/calc.sty
INPUT /usr/share/texlive/texmf-dist/tex/latex/tools/calc.sty
INPUT /usr/share/texlive/texmf-dist/tex/latex/tools/shellesc.sty
INPUT /usr/share/texlive/texmf-dist/tex/latex/tools/shellesc.sty
INPUT /usr/share/texlive/texmf-dist/tex/latex/tools/shellesc.sty
INPUT /usr/share/texlive/texmf-dist/tex/latex/ifplatform/ifplatform.sty
INPUT /usr/share/texlive/texmf-dist/tex/latex/ifplatform/ifplatform.sty
INPUT /usr/share/texlive/texmf-dist/tex/latex/pdftexcmds/pdftexcmds.sty
INPUT /usr/share/texlive/texmf-dist/tex/latex/pdftexcmds/pdftexcmds.sty
INPUT /usr/share/texlive/texmf-dist/tex/generic/infwarerr/infwarerr.sty
INPUT /usr/share/texlive/texmf-dist/tex/generic/infwarerr/infwarerr.sty
INPUT /usr/share/texlive/texmf-dist/tex/generic/iftex/iftex.sty
INPUT /usr/share/texlive/texmf-dist/tex/generic/iftex/iftex.sty
INPUT /usr/share/texlive/texmf-dist/tex/generic/catchfile/catchfile.sty
INPUT /usr/share/texlive/texmf-dist/tex/generic/catchfile/catchfile.sty
INPUT /usr/share/texlive/texmf-dist/tex/generic/etexcmds/etexcmds.sty
INPUT /usr/share/texlive/texmf-dist/tex/generic/etexcmds/etexcmds.sty
INPUT /usr/share/texlive/texmf-dist/tex/generic/iftex/ifluatex.sty
INPUT /usr/share/texlive/texmf-dist/tex/generic/iftex/ifluatex.sty
INPUT /dev/null
INPUT istruzioni.w18
INPUT istruzioni.w18
INPUT /usr/share/texlive/texmf-dist/tex/generic/xstring/xstring.sty
INPUT /usr/share/texlive/texmf-dist/tex/generic/xstring/xstring.sty
INPUT /usr/share/texlive/texmf-dist/tex/generic/xstring/xstring.tex
INPUT /usr/share/texlive/texmf-dist/tex/latex/framed/framed.sty
INPUT /usr/share/texlive/texmf-dist/tex/latex/framed/framed.sty
INPUT /usr/share/texlive/texmf-dist/tex/latex/hyperref/hyperref.sty
INPUT /usr/share/texlive/texmf-dist/tex/latex/hyperref/hyperref.sty
INPUT /usr/share/texlive/texmf-dist/tex/generic/kvdefinekeys/kvdefinekeys.sty
INPUT /usr/share/texlive/texmf-dist/tex/generic/kvdefinekeys/kvdefinekeys.sty
INPUT /usr/share/texlive/texmf-dist/tex/generic/pdfescape/pdfescape.sty
INPUT /usr/share/texlive/texmf-dist/tex/generic/pdfescape/pdfescape.sty
INPUT /usr/share/texlive/texmf-dist/tex/latex/hycolor/hycolor.sty
INPUT /usr/share/texlive/texmf-dist/tex/latex/hycolor/hycolor.sty
INPUT /usr/share/texlive/texmf-dist/tex/latex/letltxmacro/letltxmacro.sty
INPUT /usr/share/texlive/texmf-dist/tex/latex/letltxmacro/letltxmacro.sty
INPUT /usr/share/texlive/texmf-dist/tex/latex/auxhook/auxhook.sty
INPUT /usr/share/texlive/texmf-dist/tex/latex/auxhook/auxhook.sty
INPUT /usr/share/texlive/texmf-dist/tex/latex/hyperref/pd1enc.def
INPUT /usr/share/texlive/texmf-dist/tex/latex/hyperref/pd1enc.def
INPUT /usr/share/texlive/texmf-dist/tex/generic/intcalc/intcalc.sty
INPUT /usr/share/texlive/texmf-dist/tex/generic/intcalc/intcalc.sty
INPUT /usr/share/texlive/texmf-dist/tex/latex/url/url.sty
INPUT /usr/share/texlive/texmf-dist/tex/latex/url/url.sty
INPUT /usr/share/texlive/texmf-dist/tex/generic/bitset/bitset.sty
INPUT /usr/share/texlive/texmf-dist/tex/generic/bitset/bitset.sty
INPUT /usr/share/texlive/texmf-dist/tex/generic/bigintcalc/bigintcalc.sty
INPUT /usr/share/texlive/texmf-dist/tex/generic/bigintcalc/bigintcalc.sty
INPUT /usr/share/texlive/texmf-dist/tex/generic/atbegshi/atbegshi.sty
INPUT /usr/share/texlive/texmf-dist/tex/generic/atbegshi/atbegshi.sty
INPUT /usr/share/texlive/texmf-dist/tex/latex/hyperref/hpdftex.def
INPUT /usr/share/texlive/texmf-dist/tex/latex/hyperref/hpdftex.def
INPUT /usr/share/texlive/texmf-dist/tex/latex/atveryend/atveryend.sty
INPUT /usr/share/texlive/texmf-dist/tex/latex/atveryend/atveryend.sty
INPUT /usr/share/texlive/texmf-dist/tex/latex/rerunfilecheck/rerunfilecheck.sty
INPUT /usr/share/texlive/texmf-dist/tex/latex/rerunfilecheck/rerunfilecheck.sty
INPUT /usr/share/texlive/texmf-dist/tex/generic/uniquecounter/uniquecounter.sty
INPUT /usr/share/texlive/texmf-dist/tex/generic/uniquecounter/uniquecounter.sty
INPUT /usr/share/texlive/texmf-dist/tex/latex/graphics/color.sty
INPUT /usr/share/texlive/texmf-dist/tex/latex/graphics/color.sty
INPUT /usr/share/texlive/texmf-dist/tex/latex/graphics-cfg/color.cfg
INPUT /usr/share/texlive/texmf-dist/tex/latex/graphics-cfg/color.cfg
INPUT /usr/share/texlive/texmf-dist/tex/latex/colortbl/colortbl.sty
INPUT /usr/share/texlive/texmf-dist/tex/latex/colortbl/colortbl.sty
INPUT /usr/share/texlive/texmf-dist/tex/latex/tools/array.sty
INPUT /usr/share/texlive/texmf-dist/tex/latex/tools/array.sty
INPUT istruzioni.aex
INPUT istruzioni.aex
INPUT /usr/share/texlive/texmf-dist/tex/latex/l3backend/l3backend-pdfmode.def
INPUT /usr/share/texlive/texmf-dist/tex/latex/l3backend/l3backend-pdfmode.def
INPUT istruzioni.aux
INPUT istruzioni.aux
OUTPUT istruzioni.aux
INPUT /usr/share/texlive/texmf-dist/tex/context/base/mkii/supp-pdf.mkii
INPUT /usr/share/texlive/texmf-dist/tex/context/base/mkii/supp-pdf.mkii
INPUT /usr/share/texlive/texmf-dist/tex/latex/epstopdf-pkg/epstopdf-base.sty
INPUT /usr/share/texlive/texmf-dist/tex/latex/epstopdf-pkg/epstopdf-base.sty
INPUT /usr/share/texlive/texmf-dist/tex/latex/latexconfig/epstopdf-sys.cfg
INPUT /usr/share/texlive/texmf-dist/tex/latex/latexconfig/epstopdf-sys.cfg
INPUT /usr/share/texlive/texmf-dist/tex/latex/hyperref/nameref.sty
INPUT /usr/share/texlive/texmf-dist/tex/latex/hyperref/nameref.sty
INPUT /usr/share/texlive/texmf-dist/tex/latex/refcount/refcount.sty
INPUT /usr/share/texlive/texmf-dist/tex/latex/refcount/refcount.sty
INPUT /usr/share/texlive/texmf-dist/tex/generic/gettitlestring/gettitlestring.sty
INPUT /usr/share/texlive/texmf-dist/tex/generic/gettitlestring/gettitlestring.sty
INPUT istruzioni.out
INPUT istruzioni.out
INPUT istruzioni.out
INPUT istruzioni.out
OUTPUT istruzioni.pdf
INPUT ./istruzioni.out
INPUT ./istruzioni.out
OUTPUT istruzioni.out
INPUT components/img/logo-unipd.png
INPUT ./components/img/logo-unipd.png
INPUT ./components/img/logo-unipd.png
INPUT components/img/logo-imola.png
INPUT ./components/img/logo-imola.png
INPUT ./components/img/logo-imola.png
INPUT /usr/share/texlive/texmf-dist/fonts/map/fontname/texfonts.map
INPUT /usr/share/texlive/texmf-dist/fonts/tfm/public/cm/cmr17.tfm
INPUT /usr/share/texlive/texmf-dist/fonts/tfm/public/cm/cmbx12.tfm
INPUT /var/lib/texmf/fonts/map/pdftex/updmap/pdftex.map
INPUT /usr/share/texlive/texmf-dist/fonts/tfm/public/cm/cmr12.tfm
INPUT /usr/share/texlive/texmf-dist/fonts/tfm/public/cm/cmbx12.tfm
INPUT istruzioni.toc
INPUT istruzioni.toc
INPUT /usr/share/texlive/texmf-dist/fonts/tfm/public/cm/cmbx10.tfm
OUTPUT istruzioni.toc
INPUT components/scopo-istruzioni.tex
INPUT components/scopo-istruzioni.tex
INPUT components/requisiti.tex
INPUT components/requisiti.tex
INPUT /usr/share/texlive/texmf-dist/fonts/tfm/public/cm/cmr12.tfm
INPUT /usr/share/texlive/texmf-dist/fonts/tfm/public/cm/cmbx12.tfm
INPUT /usr/share/texlive/texmf-dist/fonts/tfm/jknappen/ec/tcrm1000.tfm
INPUT /usr/share/texlive/texmf-dist/fonts/tfm/public/cm/cmti10.tfm
INPUT components/installazione.tex
INPUT components/installazione.tex
OUTPUT istruzioni.pyg
INPUT _minted-istruzioni/default-pyg-prefix.pygstyle
INPUT _minted-istruzioni/default-pyg-prefix.pygstyle
INPUT _minted-istruzioni/default-pyg-prefix.pygstyle
INPUT _minted-istruzioni/default-pyg-prefix.pygstyle
INPUT _minted-istruzioni/default.pygstyle
INPUT _minted-istruzioni/default.pygstyle
INPUT _minted-istruzioni/default.pygstyle
INPUT _minted-istruzioni/default.pygstyle
INPUT ./istruzioni.pyg
INPUT _minted-istruzioni/B7FA595F7DEEAC6E9148B234FE94352428B0A19797A1B6E5EAC74EE33D279578.pygtex
INPUT _minted-istruzioni/B7FA595F7DEEAC6E9148B234FE94352428B0A19797A1B6E5EAC74EE33D279578.pygtex
INPUT _minted-istruzioni/B7FA595F7DEEAC6E9148B234FE94352428B0A19797A1B6E5EAC74EE33D279578.pygtex
INPUT _minted-istruzioni/B7FA595F7DEEAC6E9148B234FE94352428B0A19797A1B6E5EAC74EE33D279578.pygtex
INPUT /usr/share/texlive/texmf-dist/fonts/tfm/public/cm/cmtt10.tfm
OUTPUT istruzioni.pyg
INPUT ./istruzioni.pyg
INPUT _minted-istruzioni/02ADFA79EA07919A76A31156C279001A28B0A19797A1B6E5EAC74EE33D279578.pygtex
INPUT _minted-istruzioni/02ADFA79EA07919A76A31156C279001A28B0A19797A1B6E5EAC74EE33D279578.pygtex
INPUT _minted-istruzioni/02ADFA79EA07919A76A31156C279001A28B0A19797A1B6E5EAC74EE33D279578.pygtex
INPUT _minted-istruzioni/02ADFA79EA07919A76A31156C279001A28B0A19797A1B6E5EAC74EE33D279578.pygtex
INPUT components/configurazione.tex
INPUT components/configurazione.tex
INPUT /usr/share/texlive/texmf-dist/tex/latex/base/omscmr.fd
INPUT /usr/share/texlive/texmf-dist/tex/latex/base/omscmr.fd
INPUT components/img/first-screen.png
INPUT ./components/img/first-screen.png
INPUT ./components/img/first-screen.png
INPUT components/img/main-page.png
INPUT ./components/img/main-page.png
INPUT ./components/img/main-page.png
OUTPUT istruzioni.pyg
INPUT ./istruzioni.pyg
INPUT _minted-istruzioni/DD40D36933709E3765A7930C076D087C28B0A19797A1B6E5EAC74EE33D279578.pygtex
INPUT _minted-istruzioni/DD40D36933709E3765A7930C076D087C28B0A19797A1B6E5EAC74EE33D279578.pygtex
INPUT _minted-istruzioni/DD40D36933709E3765A7930C076D087C28B0A19797A1B6E5EAC74EE33D279578.pygtex
INPUT _minted-istruzioni/DD40D36933709E3765A7930C076D087C28B0A19797A1B6E5EAC74EE33D279578.pygtex
INPUT components/img/home-page-sonar.png
INPUT ./components/img/home-page-sonar.png
INPUT ./components/img/home-page-sonar.png
INPUT components/img/quality-profiles.png
INPUT ./components/img/quality-profiles.png
INPUT ./components/img/quality-profiles.png
INPUT components/img/jenkins-sonar.png
INPUT ./components/img/jenkins-sonar.png
INPUT ./components/img/jenkins-sonar.png
INPUT components/img/sonarscanner.png
INPUT ./components/img/sonarscanner.png
INPUT ./components/img/sonarscanner.png
INPUT components/img/new-project.png
INPUT ./components/img/new-project.png
INPUT ./components/img/new-project.png
INPUT components/img/jenkinsfile.png
INPUT ./components/img/jenkinsfile.png
INPUT ./components/img/jenkinsfile.png
INPUT components/img/SCM.png
INPUT ./components/img/SCM.png
INPUT ./components/img/SCM.png
INPUT components/img/jenkins-token.png
INPUT ./components/img/jenkins-token.png
INPUT ./components/img/jenkins-token.png
INPUT components/img/gitlab-connection.png
INPUT ./components/img/gitlab-connection.png
INPUT ./components/img/gitlab-connection.png
INPUT components/img/build-triggers.png
INPUT ./components/img/build-triggers.png
INPUT ./components/img/build-triggers.png
INPUT components/img/configure-pipeline.png
INPUT ./components/img/configure-pipeline.png
INPUT ./components/img/configure-pipeline.png
INPUT components/img/gitlab-webhooks.png
INPUT ./components/img/gitlab-webhooks.png
INPUT ./components/img/gitlab-webhooks.png
INPUT components/references-istruzioni.tex
INPUT components/references-istruzioni.tex
INPUT istruzioni.aux
INPUT ./istruzioni.out
INPUT ./istruzioni.out
INPUT istruzioni.pyg
INPUT /home/alberto/.texlive2019/texmf-var/fonts/pk/ljfour/jknappen/ec/tcrm1000.600pk
INPUT /usr/share/texlive/texmf-dist/fonts/type1/public/amsfonts/cm/cmbx10.pfb
INPUT /usr/share/texlive/texmf-dist/fonts/type1/public/amsfonts/cm/cmbx12.pfb
INPUT /usr/share/texlive/texmf-dist/fonts/type1/public/amsfonts/cm/cmr10.pfb
INPUT /usr/share/texlive/texmf-dist/fonts/type1/public/amsfonts/cm/cmsy10.pfb
INPUT /usr/share/texlive/texmf-dist/fonts/type1/public/amsfonts/cm/cmti10.pfb
INPUT /usr/share/texlive/texmf-dist/fonts/type1/public/amsfonts/cm/cmtt10.pfb
