# Fdb version 3
["pdflatex"] 1597222312 "istruzioni.tex" "istruzioni.pdf" "istruzioni" 1597222314
  "/dev/null" 1597221310 0 d41d8cd98f00b204e9800998ecf8427e ""
  "/etc/texmf/web2c/texmf.cnf" 1597150798 475 c0e671620eb5563b2130f56340a5fde8 ""
  "/home/alberto/.texlive2019/texmf-var/fonts/pk/ljfour/jknappen/ec/tcrm1000.600pk" 1597150981 11524 50004a75ca422126c05eb333766d6b78 ""
  "/usr/share/texlive/texmf-dist/fonts/map/fontname/texfonts.map" 1577235249 3524 cb3e574dea2d1052e39280babc910dc8 ""
  "/usr/share/texlive/texmf-dist/fonts/tfm/jknappen/ec/tcrm1000.tfm" 1136768653 1536 e07581a4bb3136ece9eeb4c3ffab8233 ""
  "/usr/share/texlive/texmf-dist/fonts/tfm/public/cm/cmbx10.tfm" 1136768653 1328 c834bbb027764024c09d3d2bf908b5f0 ""
  "/usr/share/texlive/texmf-dist/fonts/tfm/public/cm/cmbx12.tfm" 1136768653 1324 c910af8c371558dc20f2d7822f66fe64 ""
  "/usr/share/texlive/texmf-dist/fonts/tfm/public/cm/cmr12.tfm" 1136768653 1288 655e228510b4c2a1abe905c368440826 ""
  "/usr/share/texlive/texmf-dist/fonts/tfm/public/cm/cmr17.tfm" 1136768653 1292 296a67155bdbfc32aa9c636f21e91433 ""
  "/usr/share/texlive/texmf-dist/fonts/tfm/public/cm/cmti10.tfm" 1136768653 1480 aa8e34af0eb6a2941b776984cf1dfdc4 ""
  "/usr/share/texlive/texmf-dist/fonts/tfm/public/cm/cmtt10.tfm" 1136768653 768 1321e9409b4137d6fb428ac9dc956269 ""
  "/usr/share/texlive/texmf-dist/fonts/type1/public/amsfonts/cm/cmbx10.pfb" 1248133631 34811 78b52f49e893bcba91bd7581cdc144c0 ""
  "/usr/share/texlive/texmf-dist/fonts/type1/public/amsfonts/cm/cmbx12.pfb" 1248133631 32080 340ef9bf63678554ee606688e7b5339d ""
  "/usr/share/texlive/texmf-dist/fonts/type1/public/amsfonts/cm/cmr10.pfb" 1248133631 35752 024fb6c41858982481f6968b5fc26508 ""
  "/usr/share/texlive/texmf-dist/fonts/type1/public/amsfonts/cm/cmsy10.pfb" 1248133631 32569 5e5ddc8df908dea60932f3c484a54c0d ""
  "/usr/share/texlive/texmf-dist/fonts/type1/public/amsfonts/cm/cmti10.pfb" 1248133631 37944 359e864bd06cde3b1cf57bb20757fb06 ""
  "/usr/share/texlive/texmf-dist/fonts/type1/public/amsfonts/cm/cmtt10.pfb" 1248133631 31099 c85edf1dd5b9e826d67c9c7293b6786c ""
  "/usr/share/texlive/texmf-dist/tex/context/base/mkii/supp-pdf.mkii" 1461363279 71627 94eb9990bed73c364d7f53f960cc8c5b ""
  "/usr/share/texlive/texmf-dist/tex/generic/atbegshi/atbegshi.sty" 1575674566 24708 5584a51a7101caf7e6bbf1fc27d8f7b1 ""
  "/usr/share/texlive/texmf-dist/tex/generic/bigintcalc/bigintcalc.sty" 1576625341 40635 c40361e206be584d448876bba8a64a3b ""
  "/usr/share/texlive/texmf-dist/tex/generic/bitset/bitset.sty" 1576016050 33961 6b5c75130e435b2bfdb9f480a09a39f9 ""
  "/usr/share/texlive/texmf-dist/tex/generic/catchfile/catchfile.sty" 1576016007 8622 63834878edeb14dd71d58d8f22bc3e06 ""
  "/usr/share/texlive/texmf-dist/tex/generic/etexcmds/etexcmds.sty" 1576625273 7734 b98cbb34c81f667027c1e3ebdbfce34b ""
  "/usr/share/texlive/texmf-dist/tex/generic/gettitlestring/gettitlestring.sty" 1576625223 8371 9d55b8bd010bc717624922fb3477d92e ""
  "/usr/share/texlive/texmf-dist/tex/generic/iftex/ifluatex.sty" 1572645307 492 1994775aa15b0d1289725a0b1bbc2d4c ""
  "/usr/share/texlive/texmf-dist/tex/generic/iftex/iftex.sty" 1573336935 6902 30fdaf7dc5636b8e3afa306210c45cae ""
  "/usr/share/texlive/texmf-dist/tex/generic/infwarerr/infwarerr.sty" 1575499628 8356 7bbb2c2373aa810be568c29e333da8ed ""
  "/usr/share/texlive/texmf-dist/tex/generic/intcalc/intcalc.sty" 1576625065 31769 002a487f55041f8e805cfbf6385ffd97 ""
  "/usr/share/texlive/texmf-dist/tex/generic/kvdefinekeys/kvdefinekeys.sty" 1576878844 5412 d5a2436094cd7be85769db90f29250a6 ""
  "/usr/share/texlive/texmf-dist/tex/generic/kvsetkeys/kvsetkeys.sty" 1576624944 13807 952b0226d4efca026f0e19dd266dcc22 ""
  "/usr/share/texlive/texmf-dist/tex/generic/ltxcmds/ltxcmds.sty" 1576624883 18552 1e1cc7b75da0dfaacce7cdcb27d306bf ""
  "/usr/share/texlive/texmf-dist/tex/generic/pdfescape/pdfescape.sty" 1576015897 19007 15924f7228aca6c6d184b115f4baa231 ""
  "/usr/share/texlive/texmf-dist/tex/generic/uniquecounter/uniquecounter.sty" 1576624663 7008 f92eaa0a3872ed622bbf538217cd2ab7 ""
  "/usr/share/texlive/texmf-dist/tex/generic/xstring/xstring.sty" 1544223003 123 a302f2c651a95033260db60e51527ae8 ""
  "/usr/share/texlive/texmf-dist/tex/generic/xstring/xstring.tex" 1549403660 47762 87512aefe2c24c8c3ff58ba167aba4d9 ""
  "/usr/share/texlive/texmf-dist/tex/latex/anysize/anysize.sty" 1137109887 2845 4794e03732d03b84e00d88467429dcc1 ""
  "/usr/share/texlive/texmf-dist/tex/latex/atveryend/atveryend.sty" 1576191570 19336 ce7ae9438967282886b3b036cfad1e4d ""
  "/usr/share/texlive/texmf-dist/tex/latex/auxhook/auxhook.sty" 1576625391 3935 57aa3c3e203a5c2effb4d2bd2efbc323 ""
  "/usr/share/texlive/texmf-dist/tex/latex/base/article.cls" 1580683321 20023 e427dd9e17e239bf926ef3aab67fe35e ""
  "/usr/share/texlive/texmf-dist/tex/latex/base/ifthen.sty" 1580683321 5159 892429808d9e0e2b3548aaefd9a06ed0 ""
  "/usr/share/texlive/texmf-dist/tex/latex/base/omscmr.fd" 1580683321 2470 59e43b502a8bea3a12f4954945302e40 ""
  "/usr/share/texlive/texmf-dist/tex/latex/base/size10.clo" 1580683321 8446 9874cccac5fee462272c582807dbbf56 ""
  "/usr/share/texlive/texmf-dist/tex/latex/colortbl/colortbl.sty" 1579991017 10793 d0af3aa11e27ae35ba4685b17597b122 ""
  "/usr/share/texlive/texmf-dist/tex/latex/epstopdf-pkg/epstopdf-base.sty" 1579991033 13886 d1306dcf79a944f6988e688c1785f9ce ""
  "/usr/share/texlive/texmf-dist/tex/latex/etoolbox/etoolbox.sty" 1569190624 45259 743c52a37a6e5ed83cfe0e128b2da10d ""
  "/usr/share/texlive/texmf-dist/tex/latex/fancyhdr/fancyhdr.sty" 1548974385 11128 a53805799bebfed6358fc1658a18e41f ""
  "/usr/share/texlive/texmf-dist/tex/latex/fancyvrb/fancyvrb.sty" 1578950756 43158 eb6545ca94a288335910480ca6755b55 ""
  "/usr/share/texlive/texmf-dist/tex/latex/float/float.sty" 1137110151 6749 16d2656a1984957e674b149555f1ea1d ""
  "/usr/share/texlive/texmf-dist/tex/latex/framed/framed.sty" 1338588508 22449 7ec15c16d0d66790f28e90343c5434a3 ""
  "/usr/share/texlive/texmf-dist/tex/latex/fvextra/fvextra.sty" 1549403749 79524 612a4ba14a5e8b8ba4c9cbcd27a9b4b0 ""
  "/usr/share/texlive/texmf-dist/tex/latex/graphics-cfg/color.cfg" 1459978653 1213 620bba36b25224fa9b7e1ccb4ecb76fd ""
  "/usr/share/texlive/texmf-dist/tex/latex/graphics-cfg/graphics.cfg" 1465944070 1224 978390e9c2234eab29404bc21b268d1e ""
  "/usr/share/texlive/texmf-dist/tex/latex/graphics-def/pdftex.def" 1515537368 17334 520b9b85ad8a2a48eda3f643e27a5179 ""
  "/usr/share/texlive/texmf-dist/tex/latex/graphics/color.sty" 1580683321 7107 12f1c5ba3c6e4a1dde3cb5a3ae4b2cd1 ""
  "/usr/share/texlive/texmf-dist/tex/latex/graphics/graphics.sty" 1580683321 16932 04729abe63b66ec59ea56edcd722b058 ""
  "/usr/share/texlive/texmf-dist/tex/latex/graphics/graphicx.sty" 1580683321 9067 1b996612394a52e1efe89c8bfe8a5892 ""
  "/usr/share/texlive/texmf-dist/tex/latex/graphics/keyval.sty" 1580683321 2590 e3b24ff953e5b58d924f163d25380312 ""
  "/usr/share/texlive/texmf-dist/tex/latex/graphics/trig.sty" 1580683321 3976 d7fa7d81d2870d509d25b17d0245e735 ""
  "/usr/share/texlive/texmf-dist/tex/latex/hycolor/hycolor.sty" 1580250785 17914 4c28a13fc3d975e6e81c9bea1d697276 ""
  "/usr/share/texlive/texmf-dist/tex/latex/hyperref/hpdftex.def" 1579642962 50630 3d9728faf8630190cf601ce2cbe470d9 ""
  "/usr/share/texlive/texmf-dist/tex/latex/hyperref/hyperref.sty" 1579642962 238752 60dd338d71b6a4ab2192131f73dc908b ""
  "/usr/share/texlive/texmf-dist/tex/latex/hyperref/nameref.sty" 1579642962 13244 0070bcab7b5a88187847128d22faf4d8 ""
  "/usr/share/texlive/texmf-dist/tex/latex/hyperref/pd1enc.def" 1579642962 14134 32b36577d311ddb6522413c7581ee968 ""
  "/usr/share/texlive/texmf-dist/tex/latex/ifplatform/ifplatform.sty" 1507930826 3910 e04f6a6d983bdbdb024917b7ccc80262 ""
  "/usr/share/texlive/texmf-dist/tex/latex/import/import.sty" 1238175524 5149 44c7223e2a76dc66e41be8c1fb1477de ""
  "/usr/share/texlive/texmf-dist/tex/latex/kvoptions/kvoptions.sty" 1575152344 22520 c4c2dab203104295e1e618be7e5c0f5b ""
  "/usr/share/texlive/texmf-dist/tex/latex/l3backend/l3backend-pdfmode.def" 1580854751 25404 9d60f463a00d154207ec0048dee27cf0 ""
  "/usr/share/texlive/texmf-dist/tex/latex/lastpage/lastpage.sty" 1427756658 9922 eb7d00b99f0f5207f71a5cdcbafceac1 ""
  "/usr/share/texlive/texmf-dist/tex/latex/latexconfig/epstopdf-sys.cfg" 1279039959 678 4792914a8f45be57bb98413425e4c7af ""
  "/usr/share/texlive/texmf-dist/tex/latex/letltxmacro/letltxmacro.sty" 1575499565 5766 13a9e8766c47f30327caf893ece86ac8 ""
  "/usr/share/texlive/texmf-dist/tex/latex/lineno/lineno.sty" 1159951381 151738 8cd767481920f0eb785302dacfc87057 ""
  "/usr/share/texlive/texmf-dist/tex/latex/minted/minted.sty" 1500585774 47165 6a3e43a8d03bd86910a1dbf68d6c3645 ""
  "/usr/share/texlive/texmf-dist/tex/latex/pdftexcmds/pdftexcmds.sty" 1574631863 19963 36fd8e818f9f0f32e2db8413d4970122 ""
  "/usr/share/texlive/texmf-dist/tex/latex/refcount/refcount.sty" 1576624809 9878 9e94e8fa600d95f9c7731bb21dfb67a4 ""
  "/usr/share/texlive/texmf-dist/tex/latex/rerunfilecheck/rerunfilecheck.sty" 1575674187 9715 b051d5b493d9fe5f4bc251462d039e5f ""
  "/usr/share/texlive/texmf-dist/tex/latex/subfigure/subfigure.cfg" 1167176009 2062 a0e7d66e09e508f51289a656aec06ed2 ""
  "/usr/share/texlive/texmf-dist/tex/latex/subfigure/subfigure.sty" 1167176009 15188 91281c7ddbccfa54a8e0c3b56ab5aa72 ""
  "/usr/share/texlive/texmf-dist/tex/latex/subfiles/subfiles.sty" 1581719676 2776 a1c87f0b88c610bd865e83ca8fe2e7d7 ""
  "/usr/share/texlive/texmf-dist/tex/latex/tools/array.sty" 1580683321 12560 ce3f59ceae9d9a27bfe037d6bf1d903c ""
  "/usr/share/texlive/texmf-dist/tex/latex/tools/calc.sty" 1580683321 10216 5efd55f2010055e7b7875afd6a75be82 ""
  "/usr/share/texlive/texmf-dist/tex/latex/tools/shellesc.sty" 1580683321 4120 d1680a5ff60d0aea9c327e07c030f4e9 ""
  "/usr/share/texlive/texmf-dist/tex/latex/upquote/upquote.sty" 1334873510 1048 517e01cde97c1c0baf72e69d43aa5a2e ""
  "/usr/share/texlive/texmf-dist/tex/latex/url/url.sty" 1388531844 12796 8edb7d69a20b857904dd0ea757c14ec9 ""
  "/usr/share/texlive/texmf-dist/web2c/texmf.cnf" 1581979058 38841 ce3692aa899bb693b90b87eaa5d4d84e ""
  "/usr/share/texmf/web2c/texmf.cnf" 1581979058 38841 ce3692aa899bb693b90b87eaa5d4d84e ""
  "/var/lib/texmf/fonts/map/pdftex/updmap/pdftex.map" 1597151291 4432301 39d06b4d30a24394414da87bb8ce08f3 ""
  "/var/lib/texmf/web2c/pdftex/pdflatex.fmt" 1597151395 6432739 aa5efd5492f692e04f74d84c2a38231f ""
  "_minted-istruzioni/02ADFA79EA07919A76A31156C279001A28B0A19797A1B6E5EAC74EE33D279578.pygtex" 1596014012 175 445f593da01b8cf5b670865b33d81dac ""
  "_minted-istruzioni/B7FA595F7DEEAC6E9148B234FE94352428B0A19797A1B6E5EAC74EE33D279578.pygtex" 1596014012 91 339a6aae441c12f752ae97c5eeae37b4 ""
  "_minted-istruzioni/DD40D36933709E3765A7930C076D087C28B0A19797A1B6E5EAC74EE33D279578.pygtex" 1596030020 294 be9c9c7702d869d22f7eaa1cabc80ea2 ""
  "_minted-istruzioni/default-pyg-prefix.pygstyle" 1596014012 7889 3ce1fbc763e3e2c748310f4fe31722b6 ""
  "_minted-istruzioni/default.pygstyle" 1596014012 9275 f200be7fc0b7de2461cca28cb35b1427 ""
  "components/configurazione.tex" 1597156424 19389 5fc55584d8f4f3c3a1f72a7aa6cdbf5d ""
  "components/img/SCM.png" 1596460352 32452 c8a3f05c865f830135994176bc70c13f ""
  "components/img/build-triggers.png" 1596466647 80929 83d5c0627d27c8331e6d42aa933096ba ""
  "components/img/configure-pipeline.png" 1596468106 69487 a0024558bd37406851c9957198eabca7 ""
  "components/img/first-screen.png" 1596027214 100155 dfa895c9a3bb551a8a68d7b483048069 ""
  "components/img/gitlab-connection.png" 1596464542 39305 7550a6a9ebd5e3205b200c1a07e07e07 ""
  "components/img/gitlab-webhooks.png" 1596472277 177585 eb85ac73ef2445e2e9046025587accf7 ""
  "components/img/home-page-sonar.png" 1596031778 174272 a4d2fdcac559b12cd633a9db186bbc76 ""
  "components/img/jenkins-sonar.png" 1596034851 148282 d0abf6143067f596509f1ce1aeeddeb6 ""
  "components/img/jenkins-token.png" 1596462905 214963 4dfc9f37bfd8450eefb553d1f43f8b7b ""
  "components/img/jenkinsfile.png" 1596460307 11902 6cf9dfb94abfd5246f9b39725f4edfd8 ""
  "components/img/logo-imola.png" 1593072061 83592 8c0253746c9dd86960aa62cdde32235e ""
  "components/img/logo-unipd.png" 1593073080 10337 650655aeb5b6f43f9976f68a2e5df0f6 ""
  "components/img/main-page.png" 1596028472 152639 a3a6a88b9943e8b8eb96667d11086681 ""
  "components/img/new-project.png" 1596459939 195422 2cd857e5b212e9babc69dd999e5c636b ""
  "components/img/quality-profiles.png" 1596033071 174016 96c634355bffa3bd680b0292d5395ab9 ""
  "components/img/sonarscanner.png" 1596037332 127094 6449c137cb5911d35fd5397a9d357656 ""
  "components/installazione.tex" 1596014009 883 053346ca04fef0858d354de238306e90 ""
  "components/references-istruzioni.tex" 1597158588 743 59d5aee782701cca9887c9037c9e1b08 ""
  "components/requisiti.tex" 1596014238 1782 c4c04d848aba79f368bdcadb132cce37 ""
  "components/scopo-istruzioni.tex" 1596011530 180 deaf7b7e31564c782164887b5008c955 ""
  "istruzioni.aux" 1597222314 6977 6f2cf7ca44ae64814dac466cdff1a9d1 "pdflatex"
  "istruzioni.out" 1597222314 1076 5399ebeffd3c8411340e5e6413347e49 "pdflatex"
  "istruzioni.tex" 1596013104 1305 5ad860f667f88448a16715f1148a09a5 ""
  "istruzioni.toc" 1597222314 1410 3292a28777d96dc1bff64c5865c2562f "pdflatex"
  (generated)
  "istruzioni.aux"
  "istruzioni.out"
  "istruzioni.toc"
  "istruzioni.log"
  "istruzioni.pdf"
