\relax 
\providecommand\hyper@newdestlabel[2]{}
\providecommand\HyperFirstAtBeginDocument{\AtBeginDocument}
\HyperFirstAtBeginDocument{\ifx\hyper@anchor\@undefined
\global\let\oldcontentsline\contentsline
\gdef\contentsline#1#2#3#4{\oldcontentsline{#1}{#2}{#3}}
\global\let\oldnewlabel\newlabel
\gdef\newlabel#1#2{\newlabelxx{#1}#2}
\gdef\newlabelxx#1#2#3#4#5#6{\oldnewlabel{#1}{{#2}{#3}}}
\AtEndDocument{\ifx\hyper@anchor\@undefined
\let\contentsline\oldcontentsline
\let\newlabel\oldnewlabel
\fi}
\fi}
\global\let\hyper@last\relax 
\gdef\HyperFirstAtBeginDocument#1{#1}
\providecommand\HyField@AuxAddToFields[1]{}
\providecommand\HyField@AuxAddToCoFields[2]{}
\@writefile{toc}{\contentsline {section}{\numberline {1}Scopo del documento}{2}{section.1}\protected@file@percent }
\newlabel{sec:scopo_del_documento}{{1}{2}{Scopo del documento}{section.1}{}}
\@writefile{toc}{\contentsline {section}{\numberline {2}Introduzione}{2}{section.2}\protected@file@percent }
\newlabel{sec:introduzione}{{2}{2}{Introduzione}{section.2}{}}
\@writefile{toc}{\contentsline {subsection}{\numberline {2.1}Analisi statica del codice}{2}{subsection.2.1}\protected@file@percent }
\newlabel{analisi_statica}{{2.1}{2}{Analisi statica del codice}{subsection.2.1}{}}
\@writefile{toc}{\contentsline {subsection}{\numberline {2.2}Analisi dinamica del codice}{2}{subsection.2.2}\protected@file@percent }
\newlabel{analisi_dinamica}{{2.2}{2}{Analisi dinamica del codice}{subsection.2.2}{}}
\@writefile{toc}{\contentsline {subsubsection}{\numberline {2.2.1}Profiling}{2}{subsubsection.2.2.1}\protected@file@percent }
\newlabel{subs:profiling}{{2.2.1}{2}{Profiling}{subsubsection.2.2.1}{}}
\newlabel{par:profiling_ del_codice_deterministico_o_ad_eventi}{{2.2.1}{3}{Profiling deterministico o ad eventi}{section*.2}{}}
\@writefile{toc}{\contentsline {paragraph}{Profiling deterministico o ad eventi}{3}{section*.2}\protected@file@percent }
\newlabel{par:profiling statistico}{{2.2.1}{3}{Profiling statistico}{section*.3}{}}
\@writefile{toc}{\contentsline {paragraph}{Profiling statistico}{3}{section*.3}\protected@file@percent }
\@writefile{toc}{\contentsline {section}{\numberline {3}Strumenti di analisi statica}{3}{section.3}\protected@file@percent }
\newlabel{sec:strumenti_di_analisi_statica}{{3}{3}{Strumenti di analisi statica}{section.3}{}}
\@writefile{toc}{\contentsline {subsection}{\numberline {3.1}Pylint}{3}{subsection.3.1}\protected@file@percent }
\newlabel{pylint}{{3.1}{3}{Pylint}{subsection.3.1}{}}
\@writefile{toc}{\contentsline {subsubsection}{\numberline {3.1.1}Installazione e avvio}{3}{subsubsection.3.1.1}\protected@file@percent }
\newlabel{subs:installazione_e_avvio}{{3.1.1}{3}{Installazione e avvio}{subsubsection.3.1.1}{}}
\@writefile{toc}{\contentsline {subsubsection}{\numberline {3.1.2}Punti di forza e debolezza}{4}{subsubsection.3.1.2}\protected@file@percent }
\newlabel{subs:punti_di_forza_e_debolezza}{{3.1.2}{4}{Punti di forza e debolezza}{subsubsection.3.1.2}{}}
\@writefile{lot}{\contentsline {table}{\numberline {1}{\ignorespaces Punti di forza e di debolezza di Pylint}}{4}{table.1}\protected@file@percent }
\@writefile{toc}{\contentsline {subsection}{\numberline {3.2}Pyflakes}{4}{subsection.3.2}\protected@file@percent }
\newlabel{pyflakes}{{3.2}{4}{Pyflakes}{subsection.3.2}{}}
\@writefile{toc}{\contentsline {subsubsection}{\numberline {3.2.1}Installazione e avvio}{4}{subsubsection.3.2.1}\protected@file@percent }
\newlabel{subs:installazione_e_avvio}{{3.2.1}{4}{Installazione e avvio}{subsubsection.3.2.1}{}}
\@writefile{toc}{\contentsline {subsubsection}{\numberline {3.2.2}Punti di forza e debolezza}{5}{subsubsection.3.2.2}\protected@file@percent }
\newlabel{subs:punti_di_forza_e_debolezza}{{3.2.2}{5}{Punti di forza e debolezza}{subsubsection.3.2.2}{}}
\@writefile{lot}{\contentsline {table}{\numberline {2}{\ignorespaces Punti di forza e di debolezza di Pyflakes}}{5}{table.2}\protected@file@percent }
\@writefile{toc}{\contentsline {subsection}{\numberline {3.3}Bandit}{5}{subsection.3.3}\protected@file@percent }
\newlabel{bandit}{{3.3}{5}{Bandit}{subsection.3.3}{}}
\@writefile{toc}{\contentsline {subsection}{\numberline {3.4}Coverage.py}{5}{subsection.3.4}\protected@file@percent }
\newlabel{sub:coverage.py}{{3.4}{5}{Coverage.py}{subsection.3.4}{}}
\@writefile{toc}{\contentsline {subsubsection}{\numberline {3.4.1}Punti di forza e debolezza}{6}{subsubsection.3.4.1}\protected@file@percent }
\newlabel{subs:Punti_di_forza_e_debolezza}{{3.4.1}{6}{Punti di forza e debolezza}{subsubsection.3.4.1}{}}
\@writefile{lot}{\contentsline {table}{\numberline {3}{\ignorespaces Punti di forza e di debolezza di Coverage.py}}{6}{table.3}\protected@file@percent }
\@writefile{toc}{\contentsline {subsection}{\numberline {3.5}Sonarqube}{6}{subsection.3.5}\protected@file@percent }
\newlabel{sub:sonarqube}{{3.5}{6}{Sonarqube}{subsection.3.5}{}}
\@writefile{toc}{\contentsline {subsubsection}{\numberline {3.5.1}Installazione di una demo}{7}{subsubsection.3.5.1}\protected@file@percent }
\newlabel{subs:installazione_di_una_demo}{{3.5.1}{7}{Installazione di una demo}{subsubsection.3.5.1}{}}
\@writefile{toc}{\contentsline {subsubsection}{\numberline {3.5.2}Installazione di un server per la produzione}{7}{subsubsection.3.5.2}\protected@file@percent }
\newlabel{subs:installazione_di_un_server_per_la_produzione}{{3.5.2}{7}{Installazione di un server per la produzione}{subsubsection.3.5.2}{}}
\@writefile{toc}{\contentsline {subsubsection}{\numberline {3.5.3}Punti di forza e debolezza}{8}{subsubsection.3.5.3}\protected@file@percent }
\newlabel{subs:punti_di_forza_e_debolezza}{{3.5.3}{8}{Punti di forza e debolezza}{subsubsection.3.5.3}{}}
\@writefile{lot}{\contentsline {table}{\numberline {4}{\ignorespaces Punti di forza e di debolezza di Sonarqube}}{8}{table.4}\protected@file@percent }
\@writefile{toc}{\contentsline {section}{\numberline {4}Strumenti di analisi dinamica}{8}{section.4}\protected@file@percent }
\newlabel{sec:strumenti_di_analisi_dinamica}{{4}{8}{Strumenti di analisi dinamica}{section.4}{}}
\@writefile{toc}{\contentsline {subsection}{\numberline {4.1}\texttt  {Cprofile} e \texttt  {Profile}}{8}{subsection.4.1}\protected@file@percent }
\newlabel{sub:cprofile_e_profile}{{4.1}{8}{\texttt {Cprofile} e \texttt {Profile}}{subsection.4.1}{}}
\@writefile{toc}{\contentsline {subsubsection}{\numberline {4.1.1}Installazione e avvio}{9}{subsubsection.4.1.1}\protected@file@percent }
\newlabel{subs:installazione_e_avvio}{{4.1.1}{9}{Installazione e avvio}{subsubsection.4.1.1}{}}
\@writefile{lof}{\contentsline {figure}{\numberline {1}{\ignorespaces esempio di output di \texttt  {Cprofile}}}{9}{figure.1}\protected@file@percent }
\@writefile{toc}{\contentsline {subsubsection}{\numberline {4.1.2}Editor grafici}{10}{subsubsection.4.1.2}\protected@file@percent }
\newlabel{subs:editor_grafici}{{4.1.2}{10}{Editor grafici}{subsubsection.4.1.2}{}}
\@writefile{toc}{\contentsline {subsubsection}{\numberline {4.1.3}Punti di forza e debolezza}{10}{subsubsection.4.1.3}\protected@file@percent }
\newlabel{subs:punti_di_forza_e_debolezza}{{4.1.3}{10}{Punti di forza e debolezza}{subsubsection.4.1.3}{}}
\@writefile{lot}{\contentsline {table}{\numberline {5}{\ignorespaces Punti di forza e di debolezza \texttt  {Profile} e \texttt  {Cprofile}}}{10}{table.5}\protected@file@percent }
\@writefile{toc}{\contentsline {subsection}{\numberline {4.2}Pyinstrument}{10}{subsection.4.2}\protected@file@percent }
\newlabel{sub:pyinstrument}{{4.2}{10}{Pyinstrument}{subsection.4.2}{}}
\@writefile{toc}{\contentsline {subsubsection}{\numberline {4.2.1}Installazione e avvio}{10}{subsubsection.4.2.1}\protected@file@percent }
\newlabel{subs:installazione_e_avvio}{{4.2.1}{10}{Installazione e avvio}{subsubsection.4.2.1}{}}
\@writefile{toc}{\contentsline {subsubsection}{\numberline {4.2.2}Punti di forza e debolezza}{11}{subsubsection.4.2.2}\protected@file@percent }
\newlabel{subs:punti_di_forza_e_debolezza}{{4.2.2}{11}{Punti di forza e debolezza}{subsubsection.4.2.2}{}}
\@writefile{lot}{\contentsline {table}{\numberline {6}{\ignorespaces Punti di forza e di debolezza di PyInstrument}}{11}{table.6}\protected@file@percent }
\@writefile{toc}{\contentsline {subsection}{\numberline {4.3}Pyspy}{11}{subsection.4.3}\protected@file@percent }
\newlabel{pyspy}{{4.3}{11}{Pyspy}{subsection.4.3}{}}
\@writefile{toc}{\contentsline {subsubsection}{\numberline {4.3.1}Installazione e avvio}{11}{subsubsection.4.3.1}\protected@file@percent }
\newlabel{subs:installazione_e_avvio}{{4.3.1}{11}{Installazione e avvio}{subsubsection.4.3.1}{}}
\@writefile{toc}{\contentsline {subsubsection}{\numberline {4.3.2}Punti di forza e debolezza}{12}{subsubsection.4.3.2}\protected@file@percent }
\newlabel{subs:punti_di_forza_e_debolezza}{{4.3.2}{12}{Punti di forza e debolezza}{subsubsection.4.3.2}{}}
\@writefile{lot}{\contentsline {table}{\numberline {7}{\ignorespaces Punti di forza e di debolezza di Pyspy}}{12}{table.7}\protected@file@percent }
\bibcite{Pylint}{1}
\bibcite{Pyflakes}{2}
\bibcite{Bandit}{3}
\bibcite{Coverage.py}{4}
\bibcite{Sonarqube}{5}
\bibcite{Cprofile e Profile}{6}
\bibcite{Pyinstrument}{7}
\bibcite{Pyspy}{8}
\newlabel{LastPage}{{}{13}{}{page.13}{}}
\xdef\lastpage@lastpage{13}
\xdef\lastpage@lastpageHy{13}
\gdef\minted@oldcachelist{,
  default-pyg-prefix.pygstyle,
  default.pygstyle,
  E5738BFC0E230485E45823E39011C25748F38C98C8053F2B82CC64C98F47955D.pygtex,
  A20D20E2468EEEC4DA0FE6139182FCE448F38C98C8053F2B82CC64C98F47955D.pygtex,
  C42DC202F2629A6855EA71EE8BFFC19384142FC96B283EC6FC31CB03730B744B.pygtex,
  140E8529F1699E13FD62C4D20513764084142FC96B283EC6FC31CB03730B744B.pygtex,
  B7D7A3C55AFA4E4463A6C613E304AC5A48F38C98C8053F2B82CC64C98F47955D.pygtex,
  C5AA79ABB24BA3BBDBCF79ABB0C504C548F38C98C8053F2B82CC64C98F47955D.pygtex,
  EA65E82F8A9E88F5BFF8528B41BEF26C48F38C98C8053F2B82CC64C98F47955D.pygtex,
  0EBD6107C8422020A5B0C3624BBC647448F38C98C8053F2B82CC64C98F47955D.pygtex,
  C697EA301E150A198A67C706B9EF97FC48F38C98C8053F2B82CC64C98F47955D.pygtex,
  97810749F9DE4D012436345D618A82C548F38C98C8053F2B82CC64C98F47955D.pygtex,
  516EDA052DDB388885B7E086B61E87D448F38C98C8053F2B82CC64C98F47955D.pygtex,
  BB58DC6D85E40C23B6CE638ABF02440548F38C98C8053F2B82CC64C98F47955D.pygtex,
  5C4F96A9474BE33C176A19C675008C9148F38C98C8053F2B82CC64C98F47955D.pygtex,
  ECC4022E5E8CED12603EC9C91C028D1D48F38C98C8053F2B82CC64C98F47955D.pygtex,
  CF1BE06D79DEE32DCC3B1C2EC9589ACA48F38C98C8053F2B82CC64C98F47955D.pygtex,
  23890F991088AB3DC55EBB627789619348F38C98C8053F2B82CC64C98F47955D.pygtex,
  C397D13291EAE95544543BAAD39CC399F75AE3633FAB7CD6686B8DA1DE179470.pygtex,
  D87C2F1D778C5CFA9752DE994E39A65FF75AE3633FAB7CD6686B8DA1DE179470.pygtex,
  FB42DC13F66AEDF1DF3E0B644281E11848F38C98C8053F2B82CC64C98F47955D.pygtex,
  C9F7155AE5E39F523396D3E30317908148F38C98C8053F2B82CC64C98F47955D.pygtex,
  284DE1E3246E39C57E8098C68C6E2B9984142FC96B283EC6FC31CB03730B744B.pygtex,
  05D172AC23A3ABA040FA864E6F4C197A48F38C98C8053F2B82CC64C98F47955D.pygtex,
  F7FAE3A630435FEF41FD1EB3552E631A48F38C98C8053F2B82CC64C98F47955D.pygtex,
  92F57CBC4562EB909DCED39C2D2931A448F38C98C8053F2B82CC64C98F47955D.pygtex,
  ABC10CD16E753E8EF1682935BFD2C75D48F38C98C8053F2B82CC64C98F47955D.pygtex,
  5652035E40EC3F3E9AE96934E848FEE148F38C98C8053F2B82CC64C98F47955D.pygtex}
